<svg xmlns="http://www.w3.org/2000/svg" xmlns:xlink="http://www.w3.org/1999/xlink" width="210" height="210" version="1.1" style=""><rect id="backgroundrect" width="100%" height="100%" x="0" y="0" fill="none" stroke="none"/>
    <!-- Generator: Sketch 63.1 (92452) - https://sketch.com -->
    <title>alg 1</title>
    <desc>Created with Sketch.</desc>
    
<g class="currentLayer" style=""><title>Layer 1</title><g id="alg-1" stroke="none" stroke-width="1" fill="none" fill-rule="evenodd" class="selected" transform="rotate(179.81982421875 105,105) ">
        <path d="M205,10 C207.761424,10 210,7.761424000000005 210,5 C210,2.238575999999995 207.761424,0 205,0 C202.238576,0 200,2.238575999999995 200,5 C200,7.761424000000005 202.238576,10 205,10 zM205,30 C207.761424,30 210,27.761424000000005 210,25 C210,22.238575999999995 207.761424,20 205,20 C202.238576,20 200,22.238575999999995 200,25 C200,27.761424000000005 202.238576,30 205,30 zM185,30 C187.761424,30 190,27.761424000000005 190,25 C190,22.238575999999995 187.761424,20 185,20 C182.238576,20 180,22.238575999999995 180,25 C180,27.761424000000005 182.238576,30 185,30 zM205,50 C207.761424,50 210,47.761424000000005 210,45 C210,42.238575999999995 207.761424,40 205,40 C202.238576,40 200,42.238575999999995 200,45 C200,47.761424000000005 202.238576,50 205,50 zM165,50 C167.761424,50 170,47.761424000000005 170,45 C170,42.238575999999995 167.761424,40 165,40 C162.238576,40 160,42.238575999999995 160,45 C160,47.761424000000005 162.238576,50 165,50 zM185,50 C187.761424,50 190,47.761424000000005 190,45 C190,42.238575999999995 187.761424,40 185,40 C182.238576,40 180,42.238575999999995 180,45 C180,47.761424000000005 182.238576,50 185,50 zM205,70 C207.761424,70 210,67.761424 210,65 C210,62.238575999999995 207.761424,60 205,60 C202.238576,60 200,62.238575999999995 200,65 C200,67.761424 202.238576,70 205,70 zM145,70 C147.761424,70 150,67.761424 150,65 C150,62.238575999999995 147.761424,60 145,60 C142.238576,60 140,62.238575999999995 140,65 C140,67.761424 142.238576,70 145,70 zM165,70 C167.761424,70 170,67.761424 170,65 C170,62.238575999999995 167.761424,60 165,60 C162.238576,60 160,62.238575999999995 160,65 C160,67.761424 162.238576,70 165,70 zM185,70 C187.761424,70 190,67.761424 190,65 C190,62.238575999999995 187.761424,60 185,60 C182.238576,60 180,62.238575999999995 180,65 C180,67.761424 182.238576,70 185,70 zM185,90 C187.761424,90 190,87.761424 190,85 C190,82.238576 187.761424,80 185,80 C182.238576,80 180,82.238576 180,85 C180,87.761424 182.238576,90 185,90 zM205,90 C207.761424,90 210,87.761424 210,85 C210,82.238576 207.761424,80 205,80 C202.238576,80 200,82.238576 200,85 C200,87.761424 202.238576,90 205,90 zM145,90 C147.761424,90 150,87.761424 150,85 C150,82.238576 147.761424,80 145,80 C142.238576,80 140,82.238576 140,85 C140,87.761424 142.238576,90 145,90 zM125,90 C127.761424,90 130,87.761424 130,85 C130,82.238576 127.761424,80 125,80 C122.238576,80 120,82.238576 120,85 C120,87.761424 122.238576,90 125,90 zM165,90 C167.761424,90 170,87.761424 170,85 C170,82.238576 167.761424,80 165,80 C162.238576,80 160,82.238576 160,85 C160,87.761424 162.238576,90 165,90 zM145,110 C147.761424,110 150,107.761424 150,105 C150,102.238576 147.761424,100 145,100 C142.238576,100 140,102.238576 140,105 C140,107.761424 142.238576,110 145,110 zM105,110 C107.761424,110 110,107.761424 110,105 C110,102.238576 107.761424,100 105,100 C102.238576,100 100,102.238576 100,105 C100,107.761424 102.238576,110 105,110 zM125,110 C127.761424,110 130,107.761424 130,105 C130,102.238576 127.761424,100 125,100 C122.238576,100 120,102.238576 120,105 C120,107.761424 122.238576,110 125,110 zM165,110 C167.761424,110 170,107.761424 170,105 C170,102.238576 167.761424,100 165,100 C162.238576,100 160,102.238576 160,105 C160,107.761424 162.238576,110 165,110 zM185,110 C187.761424,110 190,107.761424 190,105 C190,102.238576 187.761424,100 185,100 C182.238576,100 180,102.238576 180,105 C180,107.761424 182.238576,110 185,110 zM205,110 C207.761424,110 210,107.761424 210,105 C210,102.238576 207.761424,100 205,100 C202.238576,100 200,102.238576 200,105 C200,107.761424 202.238576,110 205,110 zM145,130 C147.761424,130 150,127.7614237 150,125 C150,122.2385763 147.761424,120 145,120 C142.238576,120 140,122.2385763 140,125 C140,127.7614237 142.238576,130 145,130 zM85,130 C87.7614237,130 90,127.7614237 90,125 C90,122.2385763 87.7614237,120 85,120 C82.2385763,120 80,122.2385763 80,125 C80,127.7614237 82.2385763,130 85,130 zM105,130 C107.761424,130 110,127.7614237 110,125 C110,122.2385763 107.761424,120 105,120 C102.238576,120 100,122.2385763 100,125 C100,127.7614237 102.238576,130 105,130 zM125,130 C127.761424,130 130,127.7614237 130,125 C130,122.2385763 127.761424,120 125,120 C122.238576,120 120,122.2385763 120,125 C120,127.7614237 122.238576,130 125,130 zM165,130 C167.761424,130 170,127.7614237 170,125 C170,122.2385763 167.761424,120 165,120 C162.238576,120 160,122.2385763 160,125 C160,127.7614237 162.238576,130 165,130 zM185,130 C187.761424,130 190,127.7614237 190,125 C190,122.2385763 187.761424,120 185,120 C182.238576,120 180,122.2385763 180,125 C180,127.7614237 182.238576,130 185,130 zM205,130 C207.761424,130 210,127.7614237 210,125 C210,122.2385763 207.761424,120 205,120 C202.238576,120 200,122.2385763 200,125 C200,127.7614237 202.238576,130 205,130 zM145,150 C147.761424,150 150,147.7614237 150,145 C150,142.2385763 147.761424,140 145,140 C142.238576,140 140,142.2385763 140,145 C140,147.7614237 142.238576,150 145,150 zM165,150 C167.761424,150 170,147.7614237 170,145 C170,142.2385763 167.761424,140 165,140 C162.238576,140 160,142.2385763 160,145 C160,147.7614237 162.238576,150 165,150 zM185,150 C187.761424,150 190,147.7614237 190,145 C190,142.2385763 187.761424,140 185,140 C182.238576,140 180,142.2385763 180,145 C180,147.7614237 182.238576,150 185,150 zM65,150 C67.7614237,150 70,147.7614237 70,145 C70,142.2385763 67.7614237,140 65,140 C62.2385763,140 60,142.2385763 60,145 C60,147.7614237 62.2385763,150 65,150 zM105,150 C107.761424,150 110,147.7614237 110,145 C110,142.2385763 107.761424,140 105,140 C102.238576,140 100,142.2385763 100,145 C100,147.7614237 102.238576,150 105,150 zM125,150 C127.761424,150 130,147.7614237 130,145 C130,142.2385763 127.761424,140 125,140 C122.238576,140 120,142.2385763 120,145 C120,147.7614237 122.238576,150 125,150 zM85,150 C87.7614237,150 90,147.7614237 90,145 C90,142.2385763 87.7614237,140 85,140 C82.2385763,140 80,142.2385763 80,145 C80,147.7614237 82.2385763,150 85,150 zM205,150 C207.761424,150 210,147.7614237 210,145 C210,142.2385763 207.761424,140 205,140 C202.238576,140 200,142.2385763 200,145 C200,147.7614237 202.238576,150 205,150 zM45,170 C47.7614237,170 50,167.7614237 50,165 C50,162.2385763 47.7614237,160 45,160 C42.2385763,160 40,162.2385763 40,165 C40,167.7614237 42.2385763,170 45,170 zM85,170 C87.7614237,170 90,167.7614237 90,165 C90,162.2385763 87.7614237,160 85,160 C82.2385763,160 80,162.2385763 80,165 C80,167.7614237 82.2385763,170 85,170 zM205,170 C207.761424,170 210,167.7614237 210,165 C210,162.2385763 207.761424,160 205,160 C202.238576,160 200,162.2385763 200,165 C200,167.7614237 202.238576,170 205,170 zM185,170 C187.761424,170 190,167.7614237 190,165 C190,162.2385763 187.761424,160 185,160 C182.238576,160 180,162.2385763 180,165 C180,167.7614237 182.238576,170 185,170 zM165,170 C167.761424,170 170,167.7614237 170,165 C170,162.2385763 167.761424,160 165,160 C162.238576,160 160,162.2385763 160,165 C160,167.7614237 162.238576,170 165,170 zM125,170 C127.761424,170 130,167.7614237 130,165 C130,162.2385763 127.761424,160 125,160 C122.238576,160 120,162.2385763 120,165 C120,167.7614237 122.238576,170 125,170 zM65,170 C67.7614237,170 70,167.7614237 70,165 C70,162.2385763 67.7614237,160 65,160 C62.2385763,160 60,162.2385763 60,165 C60,167.7614237 62.2385763,170 65,170 zM105,170 C107.761424,170 110,167.7614237 110,165 C110,162.2385763 107.761424,160 105,160 C102.238576,160 100,162.2385763 100,165 C100,167.7614237 102.238576,170 105,170 zM145,170 C147.761424,170 150,167.7614237 150,165 C150,162.2385763 147.761424,160 145,160 C142.238576,160 140,162.2385763 140,165 C140,167.7614237 142.238576,170 145,170 zM185,190 C187.761424,190 190,187.7614237 190,185 C190,182.2385763 187.761424,180 185,180 C182.238576,180 180,182.2385763 180,185 C180,187.7614237 182.238576,190 185,190 zM205,190 C207.761424,190 210,187.7614237 210,185 C210,182.2385763 207.761424,180 205,180 C202.238576,180 200,182.2385763 200,185 C200,187.7614237 202.238576,190 205,190 zM85,190 C87.7614237,190 90,187.7614237 90,185 C90,182.2385763 87.7614237,180 85,180 C82.2385763,180 80,182.2385763 80,185 C80,187.7614237 82.2385763,190 85,190 zM145,190 C147.761424,190 150,187.7614237 150,185 C150,182.2385763 147.761424,180 145,180 C142.238576,180 140,182.2385763 140,185 C140,187.7614237 142.238576,190 145,190 zM125,190 C127.761424,190 130,187.7614237 130,185 C130,182.2385763 127.761424,180 125,180 C122.238576,180 120,182.2385763 120,185 C120,187.7614237 122.238576,190 125,190 zM25,190 C27.7614237,190 30,187.7614237 30,185 C30,182.2385763 27.7614237,180 25,180 C22.2385763,180 20,182.2385763 20,185 C20,187.7614237 22.2385763,190 25,190 zM105,190 C107.761424,190 110,187.7614237 110,185 C110,182.2385763 107.761424,180 105,180 C102.238576,180 100,182.2385763 100,185 C100,187.7614237 102.238576,190 105,190 zM65,190 C67.7614237,190 70,187.7614237 70,185 C70,182.2385763 67.7614237,180 65,180 C62.2385763,180 60,182.2385763 60,185 C60,187.7614237 62.2385763,190 65,190 zM165,190 C167.761424,190 170,187.7614237 170,185 C170,182.2385763 167.761424,180 165,180 C162.238576,180 160,182.2385763 160,185 C160,187.7614237 162.238576,190 165,190 zM45,190 C47.7614237,190 50,187.7614237 50,185 C50,182.2385763 47.7614237,180 45,180 C42.2385763,180 40,182.2385763 40,185 C40,187.7614237 42.2385763,190 45,190 zM5,210 C7.7614237500000005,210 10,207.76142375 10,205 C10,202.23857625 7.7614237500000005,200 5,200 C2.23857625,200 0,202.23857625 0,205 C0,207.76142375 2.23857625,210 5,210 zM25,210 C27.7614237,210 30,207.76142375 30,205 C30,202.23857625 27.7614237,200 25,200 C22.2385763,200 20,202.23857625 20,205 C20,207.76142375 22.2385763,210 25,210 zM45,210 C47.7614237,210 50,207.76142375 50,205 C50,202.23857625 47.7614237,200 45,200 C42.2385763,200 40,202.23857625 40,205 C40,207.76142375 42.2385763,210 45,210 zM65,210 C67.7614237,210 70,207.76142375 70,205 C70,202.23857625 67.7614237,200 65,200 C62.2385763,200 60,202.23857625 60,205 C60,207.76142375 62.2385763,210 65,210 zM85,210 C87.7614237,210 90,207.76142375 90,205 C90,202.23857625 87.7614237,200 85,200 C82.2385763,200 80,202.23857625 80,205 C80,207.76142375 82.2385763,210 85,210 zM105,210 C107.761424,210 110,207.76142375 110,205 C110,202.23857625 107.761424,200 105,200 C102.238576,200 100,202.23857625 100,205 C100,207.76142375 102.238576,210 105,210 zM125,210 C127.761424,210 130,207.76142375 130,205 C130,202.23857625 127.761424,200 125,200 C122.238576,200 120,202.23857625 120,205 C120,207.76142375 122.238576,210 125,210 zM145,210 C147.761424,210 150,207.76142375 150,205 C150,202.23857625 147.761424,200 145,200 C142.238576,200 140,202.23857625 140,205 C140,207.76142375 142.238576,210 145,210 zM165,210 C167.761424,210 170,207.76142375 170,205 C170,202.23857625 167.761424,200 165,200 C162.238576,200 160,202.23857625 160,205 C160,207.76142375 162.238576,210 165,210 zM185,210 C187.761424,210 190,207.76142375 190,205 C190,202.23857625 187.761424,200 185,200 C182.238576,200 180,202.23857625 180,205 C180,207.76142375 182.238576,210 185,210 zM205,210 C207.761424,210 210,207.76142375 210,205 C210,202.23857625 207.761424,200 205,200 C202.238576,200 200,202.23857625 200,205 C200,207.76142375 202.238576,210 205,210 z" id="Combined-Shape-Copy-4" fill="#DFDFDF" fill-rule="nonzero"/>
    </g></g></svg>